<svg
    xmlns="http://www.w3.org/2000/svg"
    fill="none"
    viewBox="0 0 24 24"
    stroke="currentColor"
    class="w-4 h-4 w-4 h-4 mr-2"
>
    <path
        stroke-linecap="round"
        stroke-linejoin="round"
        stroke-width="2"
        d="M11 19l-7-7 7-7m8 14l-7-7 7-7"
    ></path>
</svg>